module gitlab.com/gomedium/gomedium

go 1.18

require (
	github.com/charmbracelet/bubbles v0.12.0
	github.com/charmbracelet/bubbletea v0.22.0
	github.com/charmbracelet/glamour v0.5.0
	github.com/charmbracelet/lipgloss v0.5.0
	github.com/rs/zerolog v1.27.0
	github.com/tidwall/gjson v1.14.1
	golang.org/x/exp v0.0.0-20220613132600-b0d781184e0d
)

require (
	github.com/alecthomas/chroma v0.10.0 // indirect
	github.com/atotto/clipboard v0.1.4 // indirect
	github.com/aymerick/douceur v0.2.0 // indirect
	github.com/containerd/console v1.0.3 // indirect
	github.com/dlclark/regexp2 v1.4.0 // indirect
	github.com/gorilla/css v1.0.0 // indirect
	github.com/lucasb-eyer/go-colorful v1.2.0 // indirect
	github.com/mattn/go-colorable v0.1.12 // indirect
	github.com/mattn/go-isatty v0.0.14 // indirect
	github.com/mattn/go-runewidth v0.0.13 // indirect
	github.com/microcosm-cc/bluemonday v1.0.17 // indirect
	github.com/muesli/ansi v0.0.0-20211018074035-2e021307bc4b // indirect
	github.com/muesli/cancelreader v0.2.1 // indirect
	github.com/muesli/reflow v0.3.0 // indirect
	github.com/muesli/termenv v0.11.1-0.20220212125758-44cd13922739 // indirect
	github.com/olekukonko/tablewriter v0.0.5 // indirect
	github.com/rivo/uniseg v0.2.0 // indirect
	github.com/sahilm/fuzzy v0.1.0 // indirect
	github.com/tidwall/match v1.1.1 // indirect
	github.com/tidwall/pretty v1.2.0 // indirect
	github.com/yuin/goldmark v1.4.4 // indirect
	github.com/yuin/goldmark-emoji v1.0.1 // indirect
	golang.org/x/net v0.0.0-20220622184535-263ec571b305 // indirect
	golang.org/x/sys v0.0.0-20220622161953-175b2fd9d664 // indirect
	golang.org/x/term v0.0.0-20210927222741-03fcf44c2211 // indirect
)
